---
http_interactions:
- request:
    method: get
    uri: https://api.pipelinedeals.com/api/v3/admin/deal_stages.json?api_key=G5mZccexXgchNkAYOBlQ&page=1&per_page=5
    body:
      encoding: US-ASCII
      string: ''
    headers:
      Accept:
      - application/json
      Accept-Encoding:
      - gzip;q=1.0,deflate;q=0.6,identity;q=0.3
      User-Agent:
      - Ruby
  response:
    status:
      code: 200
      message: OK
    headers:
      Date:
      - Thu, 15 Aug 2019 17:25:38 GMT
      Content-Type:
      - application/json; charset=utf-8
      Content-Length:
      - '273'
      Connection:
      - keep-alive
      Set-Cookie:
      - __cfduid=d216f454450826e2cb06adff4f7addf001565889938; expires=Fri, 14-Aug-20
        17:25:38 GMT; path=/; domain=.pipelinedeals.com; HttpOnly
      Cache-Control:
      - max-age=0, private, must-revalidate
      Etag:
      - W/"47ba13267a53c64ee80fa3c5f7cd59db"
      Vary:
      - Accept-Encoding
      - Origin
      X-Content-Type-Options:
      - nosniff
      X-Download-Options:
      - noopen
      X-Frame-Options:
      - DENY
      X-Permitted-Cross-Domain-Policies:
      - none
      X-Ratelimit-Limit:
      - '10'
      X-Ratelimit-Remaining:
      - '10'
      X-Ratelimit-Reset:
      - '1565889939'
      X-Request-Id:
      - 9b2dd4e8-a5c5-437f-a0ae-2e21fc9db762
      X-Runtime:
      - '0.080296'
      X-Xss-Protection:
      - 1; mode=block
      Accept-Ranges:
      - bytes
      Expect-Ct:
      - max-age=604800, report-uri="https://report-uri.cloudflare.com/cdn-cgi/beacon/expect-ct"
      Server:
      - cloudflare
      Cf-Ray:
      - 506cde73a823c7e2-DFW
    body:
      encoding: ASCII-8BIT
      string: '{"entries":[{"id":727375,"percent":0,"name":"Lost","created_at":"2016/04/11
        12:59:21 -0400","updated_at":"2016/04/11 12:59:21 -0400","deal_pipeline_id":201025},{"id":727378,"percent":10,"name":"Qualified","created_at":"2016/04/11
        12:59:21 -0400","updated_at":"2017/07/24 09:02:49 -0400","deal_pipeline_id":201025},{"id":727381,"percent":25,"name":"Request
        for Info","created_at":"2016/04/11 12:59:21 -0400","updated_at":"2017/07/24
        09:03:01 -0400","deal_pipeline_id":201025},{"id":727384,"percent":50,"name":"Presentation","created_at":"2016/04/11
        12:59:21 -0400","updated_at":"2017/07/24 09:03:01 -0400","deal_pipeline_id":201025},{"id":727387,"percent":75,"name":"Negotiation","created_at":"2016/04/11
        12:59:21 -0400","updated_at":"2017/07/24 09:02:49 -0400","deal_pipeline_id":201025}],"pagination":{"page":1,"page_var":"page","per_page":5,"pages":2,"total":6}}'
    http_version: 
  recorded_at: Thu, 15 Aug 2019 17:25:38 GMT
recorded_with: VCR 5.0.0
