---
http_interactions:
- request:
    method: get
    uri: https://api.pipelinedeals.com/api/v3/deals.json?api_key=G5mZccexXgchNkAYOBlQ&page=1&per_page=5
    body:
      encoding: US-ASCII
      string: ''
    headers:
      Accept:
      - application/json
      Accept-Encoding:
      - gzip;q=1.0,deflate;q=0.6,identity;q=0.3
      User-Agent:
      - Ruby
  response:
    status:
      code: 200
      message: OK
    headers:
      Date:
      - Thu, 15 Aug 2019 16:29:12 GMT
      Content-Type:
      - application/json; charset=utf-8
      Content-Length:
      - '826'
      Connection:
      - keep-alive
      Set-Cookie:
      - __cfduid=d5cb1d855e7d723596ddaa7993ff76dfd1565886550; expires=Fri, 14-Aug-20
        16:29:10 GMT; path=/; domain=.pipelinedeals.com; HttpOnly
      Cache-Control:
      - max-age=0, private, must-revalidate
      Etag:
      - W/"468686b0565a02934d94137a6f3efe60"
      Vary:
      - Accept-Encoding
      - Origin
      X-Content-Type-Options:
      - nosniff
      X-Download-Options:
      - noopen
      X-Frame-Options:
      - DENY
      X-Permitted-Cross-Domain-Policies:
      - none
      X-Ratelimit-Limit:
      - '10'
      X-Ratelimit-Remaining:
      - '10'
      X-Ratelimit-Reset:
      - '1565886551'
      X-Request-Id:
      - 8645af25-f33d-4ac3-87a1-c766020233a1
      X-Runtime:
      - '1.697108'
      X-Xss-Protection:
      - 1; mode=block
      Accept-Ranges:
      - bytes
      Expect-Ct:
      - max-age=604800, report-uri="https://report-uri.cloudflare.com/cdn-cgi/beacon/expect-ct"
      Server:
      - cloudflare
      Cf-Ray:
      - 506c8bbcf8e2c7fa-DFW
    body:
      encoding: ASCII-8BIT
      string: '{"entries":[{"id":12807214,"name":"King-Cremin","summary":null,"user_id":220090,"created_at":"2016/04/11
        13:46:00 -0400","updated_at":"2016/04/11 13:46:00 -0400","is_archived":false,"is_example":null,"source_id":null,"primary_contact_id":null,"deal_stage_id":727384,"probability":50,"status":null,"expected_close_date":null,"closed_time":null,"expected_close_date_event_id":null,"company_id":null,"import_id":null,"value":"44049.04","deal_loss_reason_id":null,"deal_loss_reason_notes":null,"is_sample":false,"revenue_type_id":null,"deal_pipeline_id":201025,"person_ids":[],"shared_user_ids":[],"value_in_cents":4404904,"user":{"id":220090,"first_name":"Glengarry","last_name":"Ross"},"deal_stage":{"id":727384,"percent":50,"name":"Presentation"},"people":[],"currency":{"id":1,"name":"American
        Dollar","code":"USD","symbol":"$"},"deal_pipeline":{"id":201025,"name":"Sales
        Pipeline","default":true},"deal_loss_reason":null,"primary_contact":null,"company":null,"revenue_type":null,"deal_copy":null,"collaborators":[],"custom_fields":{"custom_label_1279429":null,"custom_label_1279432":"22024.0"}},{"id":12807211,"name":"Moore,
        Trantow and Senger","summary":null,"user_id":220090,"created_at":"2016/04/11
        13:46:00 -0400","updated_at":"2016/04/11 13:46:00 -0400","is_archived":false,"is_example":null,"source_id":null,"primary_contact_id":null,"deal_stage_id":727384,"probability":50,"status":null,"expected_close_date":null,"closed_time":null,"expected_close_date_event_id":null,"company_id":null,"import_id":null,"value":"33908.89","deal_loss_reason_id":null,"deal_loss_reason_notes":null,"is_sample":false,"revenue_type_id":null,"deal_pipeline_id":201025,"person_ids":[],"shared_user_ids":[],"value_in_cents":3390889,"user":{"id":220090,"first_name":"Glengarry","last_name":"Ross"},"deal_stage":{"id":727384,"percent":50,"name":"Presentation"},"people":[],"currency":{"id":1,"name":"American
        Dollar","code":"USD","symbol":"$"},"deal_pipeline":{"id":201025,"name":"Sales
        Pipeline","default":true},"deal_loss_reason":null,"primary_contact":null,"company":null,"revenue_type":null,"deal_copy":null,"collaborators":[],"custom_fields":{"custom_label_1279429":null,"custom_label_1279432":"16954.0"}},{"id":12807208,"name":"Kuvalis,
        Jakubowski and Deckow","summary":null,"user_id":220090,"created_at":"2016/04/11
        13:46:00 -0400","updated_at":"2016/04/11 13:46:00 -0400","is_archived":false,"is_example":null,"source_id":null,"primary_contact_id":null,"deal_stage_id":727387,"probability":75,"status":null,"expected_close_date":null,"closed_time":null,"expected_close_date_event_id":null,"company_id":null,"import_id":null,"value":"76300.9","deal_loss_reason_id":null,"deal_loss_reason_notes":null,"is_sample":false,"revenue_type_id":null,"deal_pipeline_id":201025,"person_ids":[],"shared_user_ids":[],"value_in_cents":7630090,"user":{"id":220090,"first_name":"Glengarry","last_name":"Ross"},"deal_stage":{"id":727387,"percent":75,"name":"Negotiation"},"people":[],"currency":{"id":1,"name":"American
        Dollar","code":"USD","symbol":"$"},"deal_pipeline":{"id":201025,"name":"Sales
        Pipeline","default":true},"deal_loss_reason":null,"primary_contact":null,"company":null,"revenue_type":null,"deal_copy":null,"collaborators":[],"custom_fields":{"custom_label_1279429":null,"custom_label_1279432":"57225.0"}},{"id":12807205,"name":"Lakin-Reynolds","summary":null,"user_id":220090,"created_at":"2016/04/11
        13:46:00 -0400","updated_at":"2016/04/11 13:46:00 -0400","is_archived":false,"is_example":null,"source_id":null,"primary_contact_id":null,"deal_stage_id":727387,"probability":75,"status":null,"expected_close_date":null,"closed_time":null,"expected_close_date_event_id":null,"company_id":null,"import_id":null,"value":"6276.93","deal_loss_reason_id":null,"deal_loss_reason_notes":null,"is_sample":false,"revenue_type_id":null,"deal_pipeline_id":201025,"person_ids":[],"shared_user_ids":[],"value_in_cents":627693,"user":{"id":220090,"first_name":"Glengarry","last_name":"Ross"},"deal_stage":{"id":727387,"percent":75,"name":"Negotiation"},"people":[],"currency":{"id":1,"name":"American
        Dollar","code":"USD","symbol":"$"},"deal_pipeline":{"id":201025,"name":"Sales
        Pipeline","default":true},"deal_loss_reason":null,"primary_contact":null,"company":null,"revenue_type":null,"deal_copy":null,"collaborators":[],"custom_fields":{"custom_label_1279429":null,"custom_label_1279432":"4707.0"}},{"id":12807202,"name":"Will
        LLC","summary":null,"user_id":220090,"created_at":"2016/04/11 13:46:00 -0400","updated_at":"2016/04/11
        13:46:00 -0400","is_archived":false,"is_example":null,"source_id":null,"primary_contact_id":null,"deal_stage_id":727381,"probability":25,"status":null,"expected_close_date":null,"closed_time":null,"expected_close_date_event_id":null,"company_id":null,"import_id":null,"value":"78181.64","deal_loss_reason_id":null,"deal_loss_reason_notes":null,"is_sample":false,"revenue_type_id":null,"deal_pipeline_id":201025,"person_ids":[],"shared_user_ids":[],"value_in_cents":7818164,"user":{"id":220090,"first_name":"Glengarry","last_name":"Ross"},"deal_stage":{"id":727381,"percent":25,"name":"Request
        for Info"},"people":[],"currency":{"id":1,"name":"American Dollar","code":"USD","symbol":"$"},"deal_pipeline":{"id":201025,"name":"Sales
        Pipeline","default":true},"deal_loss_reason":null,"primary_contact":null,"company":null,"revenue_type":null,"deal_copy":null,"collaborators":[],"custom_fields":{"custom_label_1279429":null,"custom_label_1279432":"19545.0"}}],"pagination":{"page":1,"page_var":"page","per_page":5,"pages":20,"total":100}}'
    http_version: 
  recorded_at: Thu, 15 Aug 2019 16:29:12 GMT
recorded_with: VCR 5.0.0
